animation{
  name = "normal",
  src_image = "menus/pause/cursor.png",
  frame_delay = 120,
  frame_to_loop_on = 0,
  directions = {
    { x = 0, y = 0, frame_width = 30, frame_height = 30, origin_x = 15, origin_y = 15, num_frames = 4 },
  },
}
