properties{
  x = 0,
  y = 0,
  width = 320,
  height = 480,
  min_layer = 0,
  max_layer = 2,
  world = "inside_world",
  tileset = "dungeon/dark_brown",
  music = "same",
}

tile{
  layer = 0,
  x = 64,
  y = 64,
  width = 192,
  height = 384,
  pattern = "floor.16-2",
}

tile{
  layer = 0,
  x = 40,
  y = 72,
  width = 24,
  height = 24,
  pattern = "wall_low.corner.1-2",
}

tile{
  layer = 0,
  x = 88,
  y = 56,
  width = 24,
  height = 24,
  pattern = "wall_low.corner.1-2",
}

tile{
  layer = 0,
  x = 104,
  y = 40,
  width = 24,
  height = 24,
  pattern = "wall_low.corner.1-2",
}

tile{
  layer = 0,
  x = 256,
  y = 40,
  width = 24,
  height = 24,
  pattern = "wall_low.corner.2-2",
}

tile{
  layer = 0,
  x = 200,
  y = 128,
  width = 24,
  height = 112,
  pattern = "wall_low.3-2",
}

tile{
  layer = 0,
  x = 256,
  y = 64,
  width = 24,
  height = 368,
  pattern = "wall_low.4-2",
}

tile{
  layer = 0,
  x = 64,
  y = 72,
  width = 32,
  height = 24,
  pattern = "wall_low.1-2",
}

tile{
  layer = 0,
  x = 104,
  y = 56,
  width = 24,
  height = 24,
  pattern = "wall_low.corner_reverse.1-2",
}

tile{
  layer = 0,
  x = 88,
  y = 72,
  width = 24,
  height = 24,
  pattern = "wall_low.corner_reverse.1-2",
}

tile{
  layer = 0,
  x = 128,
  y = 112,
  width = 80,
  height = 24,
  pattern = "wall_low.2-2",
}

tile{
  layer = 0,
  x = 64,
  y = 176,
  width = 48,
  height = 24,
  pattern = "wall_low.2-2",
}

tile{
  layer = 0,
  x = 40,
  y = 96,
  width = 24,
  height = 80,
  pattern = "wall_low.3-2",
}

tile{
  layer = 0,
  x = 40,
  y = 176,
  width = 24,
  height = 24,
  pattern = "wall_low.corner.3-2",
}

tile{
  layer = 0,
  x = 200,
  y = 112,
  width = 24,
  height = 24,
  pattern = "wall_low.corner_reverse.3-2",
}

tile{
  layer = 0,
  x = 128,
  y = 40,
  width = 128,
  height = 24,
  pattern = "wall_low.1-2",
}

tile{
  layer = 0,
  x = 200,
  y = 240,
  width = 24,
  height = 96,
  pattern = "wall_low.3-2",
}

tile{
  layer = 0,
  x = 64,
  y = 80,
  width = 8,
  height = 16,
  pattern = "door.1.low_support.1-2",
}

tile{
  layer = 0,
  x = 88,
  y = 80,
  width = 8,
  height = 16,
  pattern = "door.1.low_support.2-2",
}

tile{
  layer = 0,
  x = 72,
  y = 80,
  width = 16,
  height = 16,
  pattern = "door_stairs.spiral_up.1",
}

tile{
  layer = 0,
  x = 64,
  y = 96,
  width = 48,
  height = 8,
  pattern = "wall_low_border.1-3",
}

tile{
  layer = 0,
  x = 136,
  y = 64,
  width = 112,
  height = 8,
  pattern = "wall_low_border.1-3",
}

tile{
  layer = 0,
  x = 128,
  y = 64,
  width = 8,
  height = 16,
  pattern = "wall_low_border.3-3",
}

tile{
  layer = 0,
  x = 112,
  y = 80,
  width = 8,
  height = 16,
  pattern = "wall_low_border.3-3",
}

tile{
  layer = 0,
  x = 64,
  y = 104,
  width = 8,
  height = 64,
  pattern = "wall_low_border.3-3",
}

tile{
  layer = 0,
  x = 224,
  y = 112,
  width = 8,
  height = 240,
  pattern = "wall_low_border.3-3",
}

tile{
  layer = 0,
  x = 72,
  y = 168,
  width = 32,
  height = 8,
  pattern = "wall_low_border.2-3",
}

tile{
  layer = 0,
  x = 248,
  y = 72,
  width = 8,
  height = 352,
  pattern = "wall_low_border.4-3",
}

tile{
  layer = 0,
  x = 112,
  y = 96,
  width = 8,
  height = 8,
  pattern = "wall_low_border.corner_reverse.1-3",
}

tile{
  layer = 0,
  x = 128,
  y = 80,
  width = 8,
  height = 8,
  pattern = "wall_low_border.corner_reverse.1-3",
}

tile{
  layer = 0,
  x = 112,
  y = 80,
  width = 16,
  height = 8,
  pattern = "wall_low_border.1-3",
}

tile{
  layer = 0,
  x = 224,
  y = 104,
  width = 8,
  height = 8,
  pattern = "wall_low_border.corner_reverse.3-3",
}

tile{
  layer = 0,
  x = 248,
  y = 64,
  width = 8,
  height = 8,
  pattern = "wall_low_border.corner.2-3",
}

tile{
  layer = 0,
  x = 64,
  y = 168,
  width = 8,
  height = 8,
  pattern = "wall_low_border.corner.3-3",
}

tile{
  layer = 0,
  x = 64,
  y = 96,
  width = 8,
  height = 8,
  pattern = "wall_low_border.corner.1-3",
}

tile{
  layer = 0,
  x = 112,
  y = 80,
  width = 8,
  height = 8,
  pattern = "wall_low_border.corner.1-3",
}

tile{
  layer = 0,
  x = 128,
  y = 64,
  width = 8,
  height = 8,
  pattern = "wall_low_border.corner.1-3",
}

tile{
  layer = 0,
  x = 88,
  y = 104,
  width = 16,
  height = 16,
  pattern = "94",
  tileset = "addition/dungeon",
}

tile{
  layer = 0,
  x = 104,
  y = 136,
  width = 16,
  height = 16,
  pattern = "94",
  tileset = "addition/dungeon",
}

tile{
  layer = 0,
  x = 216,
  y = 88,
  width = 16,
  height = 16,
  pattern = "94",
  tileset = "addition/dungeon",
}

tile{
  layer = 0,
  x = 232,
  y = 72,
  width = 16,
  height = 16,
  pattern = "94",
  tileset = "addition/dungeon",
}

tile{
  layer = 0,
  x = 232,
  y = 104,
  width = 16,
  height = 16,
  pattern = "94",
  tileset = "addition/dungeon",
}

tile{
  layer = 0,
  x = 232,
  y = 120,
  width = 16,
  height = 16,
  pattern = "94",
  tileset = "addition/dungeon",
}

tile{
  layer = 0,
  x = 232,
  y = 152,
  width = 16,
  height = 16,
  pattern = "94",
  tileset = "addition/dungeon",
}

tile{
  layer = 0,
  x = 232,
  y = 200,
  width = 16,
  height = 16,
  pattern = "94",
  tileset = "addition/dungeon",
}

tile{
  layer = 0,
  x = 232,
  y = 264,
  width = 16,
  height = 16,
  pattern = "94",
  tileset = "addition/dungeon",
}

tile{
  layer = 0,
  x = 248,
  y = 408,
  width = 8,
  height = 8,
  pattern = "wall_low_border.corner.4-3",
}

tile{
  layer = 0,
  x = 256,
  y = 400,
  width = 24,
  height = 24,
  pattern = "wall_low.corner.4-2",
}

tile{
  layer = 0,
  x = 240,
  y = 416,
  width = 24,
  height = 24,
  pattern = "wall_low.corner.4-2",
}

tile{
  layer = 0,
  x = 240,
  y = 400,
  width = 24,
  height = 24,
  pattern = "wall_low.corner_reverse.4-2",
}

tile{
  layer = 0,
  x = 240,
  y = 392,
  width = 16,
  height = 8,
  pattern = "wall_low_border.2-3",
}

tile{
  layer = 0,
  x = 232,
  y = 400,
  width = 8,
  height = 16,
  pattern = "wall_low_border.4-3",
}

tile{
  layer = 0,
  x = 232,
  y = 392,
  width = 8,
  height = 8,
  pattern = "wall_low_border.corner_reverse.4-3",
}

tile{
  layer = 0,
  x = 232,
  y = 408,
  width = 8,
  height = 8,
  pattern = "wall_low_border.corner.4-3",
}

tile{
  layer = 0,
  x = 248,
  y = 392,
  width = 8,
  height = 8,
  pattern = "wall_low_border.corner.4-3",
}

tile{
  layer = 0,
  x = 176,
  y = 416,
  width = 64,
  height = 24,
  pattern = "wall_low.2-2",
}

tile{
  layer = 0,
  x = 152,
  y = 416,
  width = 24,
  height = 24,
  pattern = "wall_low.corner.3-2",
}

tile{
  layer = 0,
  x = 152,
  y = 352,
  width = 24,
  height = 64,
  pattern = "wall_low.3-2",
}

tile{
  layer = 0,
  x = 152,
  y = 328,
  width = 24,
  height = 24,
  pattern = "wall_low.corner.1-2",
}

tile{
  layer = 0,
  x = 176,
  y = 328,
  width = 32,
  height = 24,
  pattern = "wall_low.1-2",
}

tile{
  layer = 0,
  x = 200,
  y = 328,
  width = 24,
  height = 24,
  pattern = "wall_low.corner_reverse.1-2",
}

tile{
  layer = 0,
  x = 192,
  y = 440,
  width = 8,
  height = 8,
  pattern = "barrier.2-1",
}

tile{
  layer = 0,
  x = 200,
  y = 432,
  width = 16,
  height = 16,
  pattern = "floor.16-2",
}

tile{
  layer = 0,
  x = 216,
  y = 440,
  width = 8,
  height = 8,
  pattern = "barrier.2-1",
}

tile{
  layer = 0,
  x = 216,
  y = 416,
  width = 8,
  height = 16,
  pattern = "door.2.low_support.2-2",
}

tile{
  layer = 0,
  x = 192,
  y = 416,
  width = 8,
  height = 16,
  pattern = "door.2.low_support.1-2",
}

tile{
  layer = 0,
  x = 200,
  y = 416,
  width = 16,
  height = 16,
  pattern = "door_blast.2",
}

tile{
  layer = 0,
  x = 200,
  y = 448,
  width = 16,
  height = 8,
  pattern = "barrier.1-1",
}

tile{
  layer = 0,
  x = 176,
  y = 352,
  width = 48,
  height = 8,
  pattern = "wall_low_border.1-3",
}

tile{
  layer = 0,
  x = 176,
  y = 360,
  width = 8,
  height = 48,
  pattern = "wall_low_border.3-3",
}

tile{
  layer = 0,
  x = 184,
  y = 408,
  width = 48,
  height = 8,
  pattern = "wall_low_border.2-3",
}

tile{
  layer = 0,
  x = 224,
  y = 352,
  width = 8,
  height = 8,
  pattern = "wall_low_border.corner_reverse.1-3",
}

tile{
  layer = 0,
  x = 176,
  y = 408,
  width = 8,
  height = 8,
  pattern = "wall_low_border.corner.3-3",
}

tile{
  layer = 0,
  x = 176,
  y = 352,
  width = 8,
  height = 8,
  pattern = "wall_low_border.corner.1-3",
}

tile{
  layer = 0,
  x = 184,
  y = 360,
  width = 16,
  height = 16,
  pattern = "94",
  tileset = "addition/dungeon",
}

tile{
  layer = 0,
  x = 96,
  y = 176,
  width = 24,
  height = 24,
  pattern = "wall_low.corner.4-2",
}

tile{
  layer = 0,
  x = 112,
  y = 160,
  width = 24,
  height = 24,
  pattern = "wall_low.corner.4-2",
}

tile{
  layer = 0,
  x = 96,
  y = 160,
  width = 24,
  height = 24,
  pattern = "wall_low.corner_reverse.4-2",
}

tile{
  layer = 0,
  x = 112,
  y = 112,
  width = 24,
  height = 24,
  pattern = "wall_low.corner_reverse.4-2",
}

tile{
  layer = 0,
  x = 112,
  y = 128,
  width = 24,
  height = 32,
  pattern = "wall_low.4-2",
}

tile{
  layer = 0,
  x = 104,
  y = 112,
  width = 8,
  height = 48,
  pattern = "wall_low_border.4-3",
}

tile{
  layer = 0,
  x = 88,
  y = 160,
  width = 8,
  height = 16,
  pattern = "wall_low_border.4-3",
}

tile{
  layer = 0,
  x = 96,
  y = 152,
  width = 16,
  height = 8,
  pattern = "wall_low_border.2-3",
}

tile{
  layer = 0,
  x = 88,
  y = 152,
  width = 8,
  height = 8,
  pattern = "wall_low_border.corner_reverse.4-3",
}

tile{
  layer = 0,
  x = 104,
  y = 104,
  width = 8,
  height = 8,
  pattern = "wall_low_border.corner_reverse.4-3",
}

tile{
  layer = 0,
  x = 88,
  y = 168,
  width = 8,
  height = 8,
  pattern = "wall_low_border.corner.4-3",
}

tile{
  layer = 0,
  x = 104,
  y = 152,
  width = 8,
  height = 8,
  pattern = "wall_low_border.corner.4-3",
}

tile{
  layer = 0,
  x = 112,
  y = 104,
  width = 112,
  height = 8,
  pattern = "wall_low_border.2-3",
}

tile{
  layer = 0,
  x = 232,
  y = 280,
  width = 16,
  height = 112,
  pattern = "97",
  tileset = "addition/dungeon",
}

tile{
  layer = 0,
  x = 216,
  y = 360,
  width = 16,
  height = 32,
  pattern = "97",
  tileset = "addition/dungeon",
}

destination{
  name = "stair",
  layer = 0,
  x = 80,
  y = 93,
  direction = 3,
}

teletransporter{
  layer = 0,
  x = 72,
  y = 80,
  properties = {
    {
      key = "effect",
      value = "radial_fade_out",
    },
  },
  width = 16,
  height = 16,
  destination_map = "out/a1_west_mt_tamaranch",
  destination = "cave_a1_2_from_stair",
}

stairs{
  layer = 0,
  x = 72,
  y = 80,
  direction = 1,
  subtype = 0,
}

custom_entity{
  name = "flame_fountain",
  layer = 0,
  x = 240,
  y = 61,
  width = 16,
  height = 16,
  direction = 0,
  sprite = "entities/misc/flame_fountain_machine",
}

teletransporter{
  layer = 0,
  x = 200,
  y = 432,
  properties = {
    {
      key = "effect",
      value = "radial_fade_out",
    },
  },
  width = 16,
  height = 16,
  destination_map = "out/a1_west_mt_tamaranch",
  destination = "cave_a1_2_from_entrance",
}

destination{
  name = "entrance",
  layer = 0,
  x = 208,
  y = 429,
  direction = 1,
}

wall{
  layer = 0,
  x = 200,
  y = 416,
  width = 16,
  height = 16,
  stops_npcs = true,
  stops_enemies = true,
  stops_blocks = true,
  stops_projectiles = true,
}

dynamic_tile{
  name = "floor_1_unstable_associate_",
  layer = 0,
  x = 232,
  y = 280,
  width = 16,
  height = 16,
  pattern = "926",
}

dynamic_tile{
  name = "floor_2_unstable_associate_",
  layer = 0,
  x = 232,
  y = 296,
  width = 16,
  height = 16,
  pattern = "926",
}

dynamic_tile{
  name = "floor_3_unstable_associate_",
  layer = 0,
  x = 232,
  y = 312,
  width = 16,
  height = 16,
  pattern = "926",
}

dynamic_tile{
  name = "floor_4_unstable_associate_",
  layer = 0,
  x = 232,
  y = 328,
  width = 16,
  height = 16,
  pattern = "926",
}

dynamic_tile{
  name = "floor_5_unstable_associate_",
  layer = 0,
  x = 232,
  y = 344,
  width = 16,
  height = 16,
  pattern = "926",
}

dynamic_tile{
  name = "floor_6_unstable_associate_",
  layer = 0,
  x = 232,
  y = 360,
  width = 16,
  height = 16,
  pattern = "926",
}

dynamic_tile{
  name = "floor_7_unstable_associate_",
  layer = 0,
  x = 232,
  y = 376,
  width = 16,
  height = 16,
  pattern = "926",
}

dynamic_tile{
  name = "floor_8_unstable_associate_",
  layer = 0,
  x = 216,
  y = 360,
  width = 16,
  height = 16,
  pattern = "926",
}

dynamic_tile{
  name = "floor_9_unstable_associate_",
  layer = 0,
  x = 216,
  y = 376,
  width = 16,
  height = 16,
  pattern = "926",
}

custom_entity{
  name = "floor_1",
  layer = 0,
  x = 240,
  y = 293,
  width = 16,
  height = 16,
  direction = 0,
  sprite = "entities/grounds/weak_floor_light_1",
  model = "unstable_floor",
}

custom_entity{
  name = "floor_2",
  layer = 0,
  x = 240,
  y = 309,
  width = 16,
  height = 16,
  direction = 0,
  sprite = "entities/grounds/weak_floor_light_1",
  model = "unstable_floor",
}

custom_entity{
  name = "floor_3",
  layer = 0,
  x = 240,
  y = 325,
  width = 16,
  height = 16,
  direction = 0,
  sprite = "entities/grounds/weak_floor_light_1",
  model = "unstable_floor",
}

custom_entity{
  name = "floor_4",
  layer = 0,
  x = 240,
  y = 341,
  width = 16,
  height = 16,
  direction = 0,
  sprite = "entities/grounds/weak_floor_light_1",
  model = "unstable_floor",
}

custom_entity{
  name = "floor_5",
  layer = 0,
  x = 240,
  y = 357,
  width = 16,
  height = 16,
  direction = 0,
  sprite = "entities/grounds/weak_floor_light_1",
  model = "unstable_floor",
}

custom_entity{
  name = "floor_6",
  layer = 0,
  x = 240,
  y = 373,
  width = 16,
  height = 16,
  direction = 0,
  sprite = "entities/grounds/weak_floor_light_1",
  model = "unstable_floor",
}

custom_entity{
  name = "floor_7",
  layer = 0,
  x = 240,
  y = 389,
  width = 16,
  height = 16,
  direction = 0,
  sprite = "entities/grounds/weak_floor_light_1",
  model = "unstable_floor",
}

custom_entity{
  name = "floor_8",
  layer = 0,
  x = 224,
  y = 373,
  width = 16,
  height = 16,
  direction = 0,
  sprite = "entities/grounds/weak_floor_light_1",
  model = "unstable_floor",
}

custom_entity{
  name = "floor_9",
  layer = 0,
  x = 224,
  y = 389,
  width = 16,
  height = 16,
  direction = 0,
  sprite = "entities/grounds/weak_floor_light_1",
  model = "unstable_floor",
}

sensor{
  name = "sensor_1",
  layer = 0,
  x = 80,
  y = 109,
  properties = {
    {
      key = "save_solid_ground",
      value = "true",
    },
  },
  width = 16,
  height = 16,
}

sensor{
  name = "sensor_2",
  layer = 0,
  x = 208,
  y = 413,
  properties = {
    {
      key = "save_solid_ground",
      value = "true",
    },
  },
  width = 16,
  height = 16,
}

tile{
  layer = 1,
  x = 64,
  y = 32,
  width = 16,
  height = 24,
  pattern = "ceiling.2",
}

tile{
  layer = 1,
  x = 16,
  y = 48,
  width = 48,
  height = 16,
  pattern = "ceiling.2",
}

tile{
  layer = 1,
  x = 80,
  y = 16,
  width = 224,
  height = 16,
  pattern = "ceiling.2",
}

tile{
  layer = 1,
  x = 16,
  y = 64,
  width = 16,
  height = 160,
  pattern = "ceiling.2",
}

tile{
  layer = 1,
  x = 32,
  y = 208,
  width = 128,
  height = 16,
  pattern = "ceiling.2",
}

tile{
  layer = 1,
  x = 152,
  y = 152,
  width = 32,
  height = 56,
  pattern = "ceiling.2",
}

tile{
  layer = 1,
  x = 176,
  y = 208,
  width = 8,
  height = 96,
  pattern = "ceiling.2",
}

tile{
  layer = 1,
  x = 288,
  y = 32,
  width = 16,
  height = 448,
  pattern = "ceiling.2",
}

tile{
  layer = 1,
  x = 16,
  y = 72,
  width = 24,
  height = 128,
  pattern = "wall.3-3",
}

tile{
  layer = 1,
  x = 40,
  y = 200,
  width = 96,
  height = 24,
  pattern = "wall.2-3",
}

tile{
  layer = 1,
  x = 16,
  y = 200,
  width = 24,
  height = 24,
  pattern = "wall.corner.3-3",
}

tile{
  layer = 1,
  x = 16,
  y = 48,
  width = 24,
  height = 24,
  pattern = "wall.corner.1-3",
}

tile{
  layer = 1,
  x = 280,
  y = 16,
  width = 24,
  height = 24,
  pattern = "wall.corner.2-3",
}

tile{
  layer = 1,
  x = 104,
  y = 16,
  width = 176,
  height = 24,
  pattern = "wall.1-3",
}

tile{
  layer = 1,
  x = 80,
  y = 16,
  width = 24,
  height = 24,
  pattern = "wall.corner.1-3",
}

tile{
  layer = 1,
  x = 64,
  y = 32,
  width = 24,
  height = 24,
  pattern = "wall.corner.1-3",
}

tile{
  layer = 1,
  x = 40,
  y = 48,
  width = 32,
  height = 24,
  pattern = "wall.1-3",
}

tile{
  layer = 1,
  x = 64,
  y = 48,
  width = 24,
  height = 24,
  pattern = "wall.corner_reverse.1-3",
}

tile{
  layer = 1,
  x = 80,
  y = 32,
  width = 24,
  height = 24,
  pattern = "wall.corner_reverse.1-3",
}

tile{
  layer = 1,
  x = 152,
  y = 136,
  width = 32,
  height = 24,
  pattern = "wall.2-3",
}

tile{
  layer = 1,
  x = 176,
  y = 152,
  width = 24,
  height = 160,
  pattern = "wall.3-3",
}

tile{
  layer = 1,
  x = 280,
  y = 40,
  width = 24,
  height = 416,
  pattern = "wall.4-3",
}

tile{
  layer = 1,
  x = 176,
  y = 136,
  width = 24,
  height = 24,
  pattern = "wall.corner_reverse.3-3",
}

tile{
  layer = 1,
  x = 48,
  y = 72,
  width = 48,
  height = 8,
  pattern = "door_cache_low.1-2",
}

tile{
  layer = 1,
  x = 64,
  y = 72,
  width = 32,
  height = 8,
  pattern = "door_top.low.1-3",
}

tile{
  layer = 1,
  x = 72,
  y = 72,
  width = 16,
  height = 8,
  pattern = "door_top.stairs_up.1-1",
}

tile{
  layer = 1,
  x = 128,
  y = 304,
  width = 56,
  height = 16,
  pattern = "ceiling.2",
}

tile{
  layer = 1,
  x = 128,
  y = 320,
  width = 16,
  height = 144,
  pattern = "ceiling.2",
}

tile{
  layer = 1,
  x = 272,
  y = 440,
  width = 16,
  height = 24,
  pattern = "ceiling.2",
}

tile{
  layer = 1,
  x = 144,
  y = 448,
  width = 128,
  height = 16,
  pattern = "ceiling.2",
}

tile{
  layer = 1,
  x = 264,
  y = 440,
  width = 24,
  height = 24,
  pattern = "wall.corner.4-3",
}

tile{
  layer = 1,
  x = 280,
  y = 424,
  width = 24,
  height = 24,
  pattern = "wall.corner.4-3",
}

tile{
  layer = 1,
  x = 264,
  y = 424,
  width = 24,
  height = 24,
  pattern = "wall.corner_reverse.4-3",
}

tile{
  layer = 1,
  x = 152,
  y = 440,
  width = 112,
  height = 24,
  pattern = "wall.2-3",
}

tile{
  layer = 1,
  x = 128,
  y = 440,
  width = 24,
  height = 24,
  pattern = "wall.corner.3-3",
}

tile{
  layer = 1,
  x = 128,
  y = 328,
  width = 24,
  height = 112,
  pattern = "wall.3-3",
}

tile{
  layer = 1,
  x = 128,
  y = 304,
  width = 24,
  height = 24,
  pattern = "wall.corner.1-3",
}

tile{
  layer = 1,
  x = 152,
  y = 304,
  width = 32,
  height = 24,
  pattern = "wall.1-3",
}

tile{
  layer = 1,
  x = 176,
  y = 304,
  width = 24,
  height = 24,
  pattern = "wall.corner_reverse.1-3",
}

tile{
  layer = 1,
  x = 176,
  y = 432,
  width = 64,
  height = 8,
  pattern = "door_cache_low.2-2",
}

tile{
  layer = 1,
  x = 192,
  y = 432,
  width = 32,
  height = 8,
  pattern = "door_top.low.2-3",
}

tile{
  layer = 1,
  x = 136,
  y = 192,
  width = 16,
  height = 16,
  pattern = "ceiling.2",
}

tile{
  layer = 1,
  x = 120,
  y = 200,
  width = 24,
  height = 24,
  pattern = "wall.corner.4-3",
}

tile{
  layer = 1,
  x = 136,
  y = 184,
  width = 24,
  height = 24,
  pattern = "wall.corner.4-3",
}

tile{
  layer = 1,
  x = 120,
  y = 184,
  width = 24,
  height = 24,
  pattern = "wall.corner_reverse.4-3",
}

tile{
  layer = 1,
  x = 136,
  y = 136,
  width = 24,
  height = 24,
  pattern = "wall.corner_reverse.4-3",
}

tile{
  layer = 1,
  x = 136,
  y = 152,
  width = 24,
  height = 32,
  pattern = "wall.4-3",
}

tile{
  layer = 2,
  x = 0,
  y = 0,
  width = 320,
  height = 16,
  pattern = "ceiling.2",
}

tile{
  layer = 2,
  x = 0,
  y = 16,
  width = 16,
  height = 464,
  pattern = "ceiling.2",
}

tile{
  layer = 2,
  x = 16,
  y = 16,
  width = 64,
  height = 16,
  pattern = "ceiling.2",
}

tile{
  layer = 2,
  x = 16,
  y = 32,
  width = 48,
  height = 16,
  pattern = "ceiling.2",
}

tile{
  layer = 2,
  x = 16,
  y = 224,
  width = 112,
  height = 256,
  pattern = "ceiling.2",
}

tile{
  layer = 2,
  x = 128,
  y = 224,
  width = 48,
  height = 80,
  pattern = "ceiling.2",
}

tile{
  layer = 2,
  x = 0,
  y = 464,
  width = 320,
  height = 16,
  pattern = "ceiling.2",
}

tile{
  layer = 2,
  x = 288,
  y = 448,
  width = 16,
  height = 16,
  pattern = "ceiling.2",
}

tile{
  layer = 2,
  x = 304,
  y = 16,
  width = 16,
  height = 464,
  pattern = "ceiling.2",
}

tile{
  layer = 2,
  x = 144,
  y = 208,
  width = 32,
  height = 16,
  pattern = "ceiling.2",
}

