animation{
  name = "waiting",
  src_image = "npc/animals/photographer.png",
  frame_delay = 200,
  frame_to_loop_on = 0,
  directions = {
    { x = 0, y = 0, frame_width = 24, frame_height = 24, origin_x = 12, origin_y = 21, num_frames = 4 },
    { x = 0, y = 72, frame_width = 24, frame_height = 24, origin_x = 12, origin_y = 21, num_frames = 4 },
    { x = 0, y = 48, frame_width = 24, frame_height = 24, origin_x = 12, origin_y = 21, num_frames = 4 },
    { x = 0, y = 24, frame_width = 24, frame_height = 24, origin_x = 12, origin_y = 21, num_frames = 4 },
  },
}
animation{
  name = "caught",
  src_image = "npc/animals/photographer.png",
  directions = {
    { x = 96, y = 48, frame_width = 24, frame_height = 24, origin_x = 12, origin_y = 21 },
    { x = 96, y = 48, frame_width = 24, frame_height = 24, origin_x = 12, origin_y = 21 },
    { x = 96, y = 48, frame_width = 24, frame_height = 24, origin_x = 12, origin_y = 21 },
    { x = 96, y = 48, frame_width = 24, frame_height = 24, origin_x = 12, origin_y = 21 },
  },
}
animation{
  name = "swimming",
  src_image = "npc/animals/photographer.png",
  frame_delay = 200,
  frame_to_loop_on = 0,
  directions = {
    { x = 96, y = 0, frame_width = 24, frame_height = 24, origin_x = 12, origin_y = 29, num_frames = 4 },
    { x = 96, y = 24, frame_width = 24, frame_height = 24, origin_x = 12, origin_y = 29, num_frames = 4 },
    { x = 96, y = 0, frame_width = 24, frame_height = 24, origin_x = 12, origin_y = 29, num_frames = 4 },
    { x = 96, y = 0, frame_width = 24, frame_height = 24, origin_x = 12, origin_y = 29, num_frames = 4 },
  },
}
animation{
  name = "walking",
  src_image = "npc/animals/photographer.png",
  frame_delay = 150,
  frame_to_loop_on = 0,
  directions = {
    { x = 0, y = 0, frame_width = 24, frame_height = 24, origin_x = 12, origin_y = 21, num_frames = 4 },
    { x = 0, y = 72, frame_width = 24, frame_height = 24, origin_x = 12, origin_y = 21, num_frames = 4 },
    { x = 0, y = 48, frame_width = 24, frame_height = 24, origin_x = 12, origin_y = 21, num_frames = 4 },
    { x = 0, y = 24, frame_width = 24, frame_height = 24, origin_x = 12, origin_y = 21, num_frames = 4 },
  },
}
